^D:\GIT\GIT VISUAL\CONSOLEAPPLICATION17\CONSOLEAPPLICATION17\CONSOLEAPPLICATION17.CPP
D:\GIT\GIT VISUAL\CONSOLEAPPLICATION17\CONSOLEAPPLICATION17\DEBUG\VC142.PDB
D:\GIT\GIT VISUAL\CONSOLEAPPLICATION17\CONSOLEAPPLICATION17\DEBUG\VC142.IDB
D:\GIT\GIT VISUAL\CONSOLEAPPLICATION17\CONSOLEAPPLICATION17\DEBUG\CONSOLEAPPLICATION17.OBJ
