^D:\GIT\GIT VISUAL\CONSOLEAPPLICATION17\CONSOLEAPPLICATION17\DEBUG\CONSOLEAPPLICATION17.OBJ
D:\GIT\GIT VISUAL\CONSOLEAPPLICATION17\DEBUG\CONSOLEAPPLICATION17.EXE
D:\GIT\GIT VISUAL\CONSOLEAPPLICATION17\DEBUG\CONSOLEAPPLICATION17.ILK
D:\GIT\GIT VISUAL\CONSOLEAPPLICATION17\DEBUG\CONSOLEAPPLICATION17.PDB
